tb_FIFO_cache.vcd
$date
	Tue Jun 16 09:50:03 2026
$end
$version
	Icarus Verilog
$end
$timescale
	1ps
$end
$scope module tb_async_to_sync_fifo $end
$var wire 8 ! mon_ram0 [7:0] $end
$var wire 8 " mon_ram1 [7:0] $end
$var wire 8 # mon_ram2 [7:0] $end
$var wire 8 $ mon_ram3 [7:0] $end
$var wire 1 % full $end
$var wire 1 & empty $end
$var wire 8 ' dout [7:0] $end
$var reg 8 ( async_din [7:0] $end
$var reg 1 ) async_wr_req $end
$var reg 1 * clk_cache $end
$var reg 1 + rd_en $end
$var reg 1 , rst_n $end
$scope module uut $end
$var wire 8 - async_din [7:0] $end
$var wire 1 ) async_wr_req $end
$var wire 1 * clk_cache $end
$var wire 8 . dout [7:0] $end
$var wire 1 % full $end
$var wire 1 + rd_en $end
$var wire 1 , rst_n $end
$var wire 1 / wr_en $end
$var wire 1 & empty $end
$var reg 8 0 din_reg [7:0] $end
$var reg 3 1 rd_ptr [2:0] $end
$var reg 3 2 wr_ptr [2:0] $end
$var reg 3 3 wr_req_sync [2:0] $end
$upscope $end
$upscope $end
$enddefinitions $end
#0
$dumpvars
b0 3
b0 2
b0 1
b0 0
0/
bx .
b0 -
0,
0+
0*
0)
b0 (
bx '
1&
0%
bx $
bx #
bx "
bx !
$end
#5000
1*
#10000
0*
#15000
1*
#20000
0*
#25000
1*
1,
#30000
0*
1)
b10101010 (
b10101010 -
#35000
b1 3
b10101010 0
1*
#40000
0*
#45000
1/
b11 3
1*
#50000
0*
0)
#55000
0/
b110 3
0&
b1 2
b10101010 '
b10101010 .
b10101010 !
1*
#60000
0*
#65000
b100 3
1*
#70000
0*
#75000
b0 3
1*
