COREPROCESS/tb_core.vcd
$date
	Tue Jun 30 14:42:29 2026
$end
$version
	Icarus Verilog
$end
$timescale
	1ns
$end
$scope module tb_coreprocess $end
$var wire 1 ! en_h1 $end
$var wire 1 " en_h0 $end
$var wire 8 # device_out_z [7:0] $end
$var wire 8 $ device_out_h1 [7:0] $end
$var wire 8 % device_out_h0 [7:0] $end
$var reg 32 & device_a [31:0] $end
$var reg 32 ' device_b [31:0] $end
$var reg 32 ( device_c [31:0] $end
$var reg 32 ) device_d [31:0] $end
$var reg 32 * device_e [31:0] $end
$var reg 32 + device_f [31:0] $end
$var reg 32 , device_g [31:0] $end
$var reg 32 - device_h [31:0] $end
$var reg 32 . device_i [31:0] $end
$var reg 32 / device_j [31:0] $end
$var reg 32 0 device_k [31:0] $end
$var reg 32 1 device_l [31:0] $end
$var reg 32 2 device_m [31:0] $end
$var reg 32 3 device_n [31:0] $end
$var reg 32 4 device_o [31:0] $end
$var reg 32 5 device_p [31:0] $end
$var reg 32 6 device_q [31:0] $end
$var reg 32 7 device_r [31:0] $end
$var reg 32 8 device_s [31:0] $end
$var reg 32 9 device_t [31:0] $end
$var reg 32 : device_u [31:0] $end
$var reg 32 ; device_v [31:0] $end
$var reg 32 < device_w [31:0] $end
$var reg 32 = device_x [31:0] $end
$var reg 32 > device_y [31:0] $end
$var reg 32 ? device_z [31:0] $end
$var reg 1 @ en_h $end
$var reg 1 A en_z $end
$scope module node_h0 $end
$var wire 8 B signal_in [7:0] $end
$var wire 8 C signal_out [7:0] $end
$var wire 8 D signal_inv [7:0] $end
$var wire 1 " en $end
$scope module latch $end
$var wire 8 E data [7:0] $end
$var wire 8 F s_node [7:0] $end
$var wire 8 G r_node [7:0] $end
$var wire 8 H inv_data [7:0] $end
$var wire 1 " en $end
$var wire 8 I Yn [7:0] $end
$var wire 8 J Y [7:0] $end
$upscope $end
$upscope $end
$scope module node_h1 $end
$var wire 8 K signal_in [7:0] $end
$var wire 8 L signal_out [7:0] $end
$var wire 8 M signal_inv [7:0] $end
$var wire 1 ! en $end
$scope module latch $end
$var wire 8 N data [7:0] $end
$var wire 8 O s_node [7:0] $end
$var wire 8 P r_node [7:0] $end
$var wire 8 Q inv_data [7:0] $end
$var wire 1 ! en $end
$var wire 8 R Yn [7:0] $end
$var wire 8 S Y [7:0] $end
$upscope $end
$upscope $end
$scope module node_z $end
$var wire 1 A en $end
$var wire 8 T signal_in [7:0] $end
$var wire 8 U signal_out [7:0] $end
$var wire 8 V signal_inv [7:0] $end
$scope module latch $end
$var wire 8 W data [7:0] $end
$var wire 1 A en $end
$var wire 8 X s_node [7:0] $end
$var wire 8 Y r_node [7:0] $end
$var wire 8 Z inv_data [7:0] $end
$var wire 8 [ Yn [7:0] $end
$var wire 8 \ Y [7:0] $end
$upscope $end
$upscope $end
$scope module u_router $end
$var wire 1 @ en $end
$var wire 1 " en0 $end
$var wire 1 ! en1 $end
$var wire 1 ] phase_n $end
$var wire 1 ^ phase $end
$scope module u_toggle $end
$var wire 1 @ en $end
$var wire 1 _ phase_n $end
$var wire 1 ` toggle_in $end
$var wire 1 ^ phase $end
$var wire 1 a fall $end
$scope module u_fall $end
$var wire 1 @ en $end
$var wire 1 b en_del $end
$var wire 1 c en_n $end
$var wire 1 a fall $end
$var wire 1 d w $end
$upscope $end
$scope module u_phase $end
$var wire 1 ^ Y $end
$var wire 1 _ Yn $end
$var wire 1 ` data $end
$var wire 1 a en $end
$var wire 1 e inv_data $end
$var wire 1 f r_node $end
$var wire 1 g s_node $end
$upscope $end
$upscope $end
$upscope $end
$upscope $end
$enddefinitions $end
#0
$dumpvars
xg
xf
xe
xd
1c
xb
xa
1`
1_
0^
1]
bx \
bx [
b11111111 Z
b11111111 Y
b11111111 X
b0 W
bx V
bx U
b0 T
bx S
bx R
b11111111 Q
b11111111 P
b11111111 O
b0 N
bx M
bx L
b0 K
bx J
bx I
b11111111 H
b11111111 G
b11111111 F
b0 E
bx D
bx C
b0 B
0A
0@
b0 ?
b0 >
b0 =
b0 <
b0 ;
b0 :
b0 9
b0 8
b0 7
b0 6
b0 5
b0 4
b0 3
b0 2
b0 1
b0 0
b0 /
b0 .
b0 -
b0 ,
b0 +
b0 *
b0 )
b0 (
b0 '
b0 &
bx %
bx $
bx #
0"
0!
$end
#1
0a
0b
0e
1d
1_
#2
1g
1f
#3
0^
#10
b1 #
b1 U
b1 \
b11111110 V
b11111110 [
b11111110 X
b11111110 Z
b1 Y
b1 T
b1 W
1A
b1 ?
#15
b11111111 X
b11111111 Y
0A
#25
b11111110 H
b11111110 Q
b1 B
b1 E
b1 K
b1 N
b1 -
#26
b11111110 D
b11111110 I
b1 %
b1 C
b1 J
b1 G
b11111110 F
1"
0c
1@
#27
1b
0d
#31
b11111111 G
b11111111 F
1a
0"
1c
0@
#32
0a
0b
0g
1d
#33
1g
#41
b11111101 H
b11111101 Q
b10 B
b10 E
b10 K
b10 N
b10 -
#42
b11111101 D
b11111101 I
b10 %
b10 C
b10 J
b10 G
b11111101 F
1"
0c
1@
#43
1b
0d
#47
b11111111 G
b11111111 F
1a
0"
1c
0@
#48
0a
0b
0g
1d
#49
1g
